{
 "plugins": [
    {
      "pluginPath": "./../plugins/binary/libBcl2FastQ.so",
      "configPath": "../tests/mockFiles/fastQHeader.json",
      "inputFragments": [
      ],
      "outputFragments": [
      ]
    }
  ],
 "RunInfoPath": "./mockRunInfo.xml"	  
}
