[Header],,,,,,,,,,
IEMFileVersion,4,,,,,,,,,
Date,181217,,,,,,,,,
Workflow,GenerateFASTQ,,,,,,,,,
Application,FASTQ Only,,,,,,,,,
Assay,Nextera XT,,,,,,,,,
Description,MS2_Run_182,,,,,,,,,
Chemistry,Amplicon,,,,,,,,,
,,,,,,,,,,
[Reads],,,,,,,,,,
301,,,,,,,,,,
301,,,,,,,,,,
,,,,,,,,,,
[Settings],,,,,,,,,,
ReverseComplement,0,,,,,,,,,
kmer,31,,,,,,,,,
Adapter,CTGTCTCTTATACACATCT,,,,,,,,,
,,,,,,,,,,
[Data],,,,,,,,,,
Sample_Name,Sample_ID,Sample_Plate,Sample_Well,I7_Index_ID,index,I5_Index_ID,index2,GenomeFolder,Sample_Project,Description
,181217_18-8526_JSNZ_jep-jepD,,,N705,ACAG,S505,TCGA,,huberc,
,181217_18-8634_SiB 10,,,N707,ACGG,S513,TGGA,,boettchers,
